M4 Approximations for Compound Distributions | General Insurance Modelling - AM3
…
  Preliminaries
  #

Basic parameters:

M <- 10000
data.scale <- 100

Loading data:

SUVA <- read_excel("SUVA.xls")
as_tibble(SUVA)

## # A tibble: 2,326 x 2
##    medcosts dailyallow
##       <dbl>      <dbl>
##  1      407          0
##  2    12591      13742
##  3      269          0
##  4      142          0
##  5      175          0
##  6      298        839
##  7       47          0
##  8       59          0
##  9      191       7446
## 10      159          0
## # ... with 2,316 more rows
…
